$@MID@$: 1
Date: Thu Nov 08 18:37:57 2001
Author: Stefan Ritt
Type: Routine
Category: General
Subject: Welcome
Attachment: 
Encoding: ELCode
========================================
[B]Congratulations for installing ELOG sucessfully!
[/B]

This is a demo entry to ensure the elogd server is working correctly. 
Click [I]"New"[/I] to add new pages and [I]"Delete"[/I] to delete this page.
